<?xml version="1.0" encoding="utf-8"?>
<!-- Generator: Adobe Illustrator 25.0.1, SVG Export Plug-In . SVG Version: 6.00 Build 0)  -->
<svg version="1.1" xmlns="http://www.w3.org/2000/svg" xmlns:xlink="http://www.w3.org/1999/xlink" x="0px" y="0px"
	 viewBox="0 0 660 216" style="enable-background:new 0 0 660 216;" xml:space="preserve" width="125">
<style type="text/css">
	.st0{display:none;fill:#1E1511;}
	.st1{fill:#FFFFFF;}
</style>
<g id="Camada_2">
	<rect class="st0" width="660" height="216"/>
</g>
<g id="Camada_1">
	<g>
		<g>
			<polygon class="st1" points="181.81,195.5 269.31,108 181.81,20.5 326.24,20.5 413.74,108 326.24,195.5 			"/>
			<polygon class="st1" points="376.88,195.5 464.38,108 376.88,20.5 439.59,20.5 527.09,108 439.59,195.5 			"/>
			<polygon class="st1" points="483.95,195.5 571.45,108 483.95,20.5 546.65,20.5 634.16,108 546.65,195.5 			"/>
		</g>
		<path class="st1" d="M112.96,20.89c-48.11,0-87.11,39-87.11,87.11c0,48.11,39,87.11,87.11,87.11c48.11,0,87.11-39,87.11-87.11
			C200.07,59.89,161.07,20.89,112.96,20.89z M105.22,38.05c2.65,0.74,4.58,4.06,6.8,6.23c0.01,0,0.02,0,0.02,0s0.02,0,0.02,0
			c2.22-2.17,4.15-5.48,6.8-6.23c2.93-0.82,6.65,6.51,4.75,10.52c-2.87,6.03-6.6,11.71-10.63,18.42c-0.26,0.6-0.52,1.19-0.78,1.82
			c-0.05-0.09-0.11-0.17-0.16-0.26c-0.05,0.09-0.11,0.17-0.16,0.26c-0.26-0.62-0.52-1.22-0.78-1.82
			c-4.03-6.71-7.77-12.39-10.63-18.42C98.56,44.56,102.29,37.23,105.22,38.05z M101.12,59.15c4.1,6.38,8.04,12.51,11.72,18.22
			c3.49-6.05,7.32-12.67,11.73-20.32c6.88,16.36-9.76,23.14-11.75,35.16C101.61,81.3,96.26,66.81,101.12,59.15z M94.06,74.52
			c6.47,10.95,12.83,21.71,18.29,30.96c5.19-10.3,11.14-22.11,17.13-34c5.45,8.13,4.63,23.74-1.81,30.29
			c-4.8,4.88-10,9.37-14.72,13.75c-5.49-4.8-11.25-9.65-16.79-14.73C89.06,94.29,88.14,83.24,94.06,74.52z M99.26,112.72
			c6.26,4.45,9.43,10.82,10.59,18.32c-4-8.63-10.2-14.68-20.08-16.87c5.65,6.01,11.3,12.01,16.95,18.02
			c-17.27-7.83-29.39-19.49-29.35-39.97C81.33,102.83,91.09,106.9,99.26,112.72z M65.36,107.18c2.12,3.17,3.72,5.46,5.21,7.82
			c5.58,8.8,13.74,13.43,23.76,15.79c10.45,2.46,16.15,9.16,17.12,20.18c-3.33-8.42-9.56-10.69-16.15-12.61
			c-6.19-1.81-12.28-3.91-18.84-6.03c3.69,6.98,9.9,9.98,16.72,12.33c4.08,1.4,8.56,2.55,11.85,5.11c3.28,2.56,5.31,6.74,7.02,11.02
			c-5.62-8.53-14.45-10.4-23.23-12.68C69.27,143.02,59.12,125.76,65.36,107.18z M110.09,181.98c-5.75-3.66-11.15-8.03-17.25-10.95
			c-7.21-3.45-15.25-5.16-22.51-8.53c-14.13-6.55-22.43-23.59-18.43-38.61c0.14-0.54,0.75-2.69,1.74-3.84
			c3.46,18.58,16.38,25.97,32.68,29.78c8.63,2.01,16.48,5.84,22.07,13.1c1.65,2.14,2.68,4.75,2.74,8.12
			c-1.32-1.41-2.42-3.18-4.01-4.16c-5.64-3.49-10.75-8.89-17.26-9.89c-8.13-1.25-18.27-5.3-25.45-10.62
			c2.79,4.77,2.98,5.64,8.87,11.32c4.8,4.62,10.27,4.14,16.71,6.07c9.43,2.82,18.25,6.18,22.09,16.45c0.28,0.74,1.27,1.21,1.34,3.13
			C112.29,182.89,111.08,182.61,110.09,181.98z M122.9,111.37c7.52-7.32,16.94-13.08,19.34-24.69c3.32,21.15-7.34,35.14-23.93,45.99
			c4.88-7.11,9.75-14.22,14.63-21.33c-9.86,3.85-15.3,11.09-18.05,20.65C114.89,124.05,117.15,116.97,122.9,111.37z M131.82,133.82
			c-9.53,2.72-8.79,3.93-14.3,11.67c-0.14-0.07-0.28-0.13-0.42-0.18c1.8-3.59,3.55-7.22,6.12-10.14c3.81-4.33,9.25-7.18,13.63-11.06
			c6.85-6.06,13.42-12.44,19.81-18.4c3.52,7.02,1.22,20.86-7.18,28.31c-6.23,5.53-13.91,9.45-21.02,13.97
			c-3.97,2.52-8.02,4.86-11.95,7.19c0.21-1.69,0.65-3.3,1.8-4.73c4.14-4.2,6.52-8.9,10.97-10.75c4.9-2.04,10.57-7.41,14.25-11.2
			C143.05,128.07,137.16,132.01,131.82,133.82z M174.2,138.24c-2.49,10.59-9.86,17.33-19.08,22.02c-5.59,2.84-11.66,4.78-17.59,6.91
			c-6.24,2.24-12.57,4.24-20.5,6.89c11.8-12.73,30.76-10.53,40.98-23.96c-14.1,5.86-27.63,11.48-41.01,17.04
			c1.04-4.29,4.76-7.88,9.66-10.33c6.24-3.11,12.68-5.79,18.95-8.85c12.71-6.21,21.59-15.38,22.62-32.19
			C175.2,123.31,176.01,130.54,174.2,138.24z"/>
	</g>
</g>
</svg>
